Práctica 2 - Módulo 3
…
Para que el modelo nos arroje sus predicciones, usamos el comando
predict(), donde tenemos que especificar el modelo y los datos
sobre los cuales predecir. Como en este caso queremos recuperar las
predicciones “dentro de la muestra”, usamos los mismos datos.

Podemos ver tanto la predicción puntual para cada observación (por
default), como un intervalo de confianza.

lm_fit %>% 
  predict(new_data = base_juguete
          #,type = "pred_int"  #Si queremos el intervalo de confianza de la prediccion
          )

## # A tibble: 600 × 1
##     .pred
##     <dbl>
##  1 24831.
##  2 28413.
##  3 42292.
##  4 28861.
##  5 18115.
##  6 31995.
##  7 10952.
##  8 12742.
##  9 27517.
## 10 16324.
## # ℹ 590 more rows

Nota: por ahora no estamos usando sets de train y test, por
lo que predecimos sobre los mismos datos sobre los que entrenamos el
modelo. Cuando empecemos a usar train y test, vamos a ingresar el set de
test en el argumento new_data.

También podemos usar la función augment() para anexar
nuestras predicciones y sus residuos a la base. Es lo mismo que
predict() pero nos pega todos los datos.

lm_fit %>% 
  augment(new_data = base_juguete)

## # A tibble: 600 × 8
##     .pred  .resid sexo  realiza_trabajo_domestico horas_trabajo_mercado
##     <dbl>   <dbl> <chr> <chr>                                     <int>
##  1 24831.  -7953. Mujer Si                                           12
##  2 28413.   4737. Mujer Si                                           40
##  3 42292.  16926. Mujer No                                           30
##  4 28861.  -1521. Mujer Si                                            4
##  5 18115.  -1763. Mujer Si                                           15
##  6 31995. -10600. Mujer Si                                           13
##  7 10952.   5130. Mujer Si                                           13
##  8 12742.  14462. Mujer Si                                           10
##  9 27517.   9631. Mujer Si                                           15
## 10 16324.  -2599. Mujer Si                                           17
## # ℹ 590 more rows
## # ℹ 3 more variables: horas_trabajo_domestico <dbl>, ingreso_individual <dbl>,
## #   menores_hogar <int>
…
